%YAML 1.1
%TAG !u! tag:unity3d.com,2011:
--- !u!1045 &1
EditorBuildSettings:
  m_ObjectHideFlags: 0
  serializedVersion: 2
  m_Scenes:
  - enabled: 1
    path: Assets/Scenes/MainMenu.unity
    guid: 38f0e23deae6e3e4782d9f8932664daa
  - enabled: 1
    path: Assets/Scenes/Loading.unity
    guid: 887f63554f3443569ac44c9f5d40eeff
  - enabled: 1
    path: Assets/Scenes/Level1.unity
    guid: b3201cf7096d2d83baea1b9e3ff4ff9b
  - enabled: 1
    path: Assets/Scenes/Lobby.unity
    guid: b09a829fe8419a08881709dc738f2721
  - enabled: 1
    path: Assets/Scenes/Connecting.unity
    guid: 78a0e725308c39de8b8a248c65fd1a95
  m_configObjects: {}
